{
  "name": "zaaksysteem_vendors",
  "content": {
    "./node_modules/lodash/isArray.js": {
      "id": 0,
      "meta": {}
    },
    "./node_modules/lodash/_baseIteratee.js": {
      "id": 1,
      "meta": {}
    },
    "./node_modules/lodash/isObject.js": {
      "id": 2,
      "meta": {}
    },
    "./node_modules/lodash/toInteger.js": {
      "id": 3,
      "meta": {}
    },
    "./node_modules/lodash/_root.js": {
      "id": 4,
      "meta": {}
    },
    "./node_modules/lodash/rest.js": {
      "id": 5,
      "meta": {}
    },
    "./node_modules/lodash/keys.js": {
      "id": 6,
      "meta": {}
    },
    "./node_modules/lodash/_arrayMap.js": {
      "id": 7,
      "meta": {}
    },
    "./node_modules/lodash/_toKey.js": {
      "id": 8,
      "meta": {}
    },
    "./node_modules/lodash/isArrayLike.js": {
      "id": 9,
      "meta": {}
    },
    "./node_modules/webpack/buildin/global.js": {
      "id": 10,
      "meta": {}
    },
    "./node_modules/lodash/_apply.js": {
      "id": 11,
      "meta": {}
    },
    "./node_modules/lodash/isObjectLike.js": {
      "id": 12,
      "meta": {}
    },
    "./node_modules/lodash/_baseEach.js": {
      "id": 13,
      "meta": {}
    },
    "./node_modules/lodash/_isKey.js": {
      "id": 14,
      "meta": {}
    },
    "./node_modules/lodash/isFunction.js": {
      "id": 15,
      "meta": {}
    },
    "./node_modules/lodash/toString.js": {
      "id": 16,
      "meta": {}
    },
    "./node_modules/lodash/_baseFlatten.js": {
      "id": 17,
      "meta": {}
    },
    "./node_modules/lodash/_isIterateeCall.js": {
      "id": 18,
      "meta": {}
    },
    "./node_modules/lodash/_baseIndexOf.js": {
      "id": 19,
      "meta": {}
    },
    "./node_modules/lodash/_baseSlice.js": {
      "id": 20,
      "meta": {}
    },
    "./node_modules/lodash/_copyArray.js": {
      "id": 21,
      "meta": {}
    },
    "./node_modules/lodash/_getNative.js": {
      "id": 22,
      "meta": {}
    },
    "./node_modules/lodash/_isIndex.js": {
      "id": 23,
      "meta": {}
    },
    "./node_modules/lodash/isSymbol.js": {
      "id": 24,
      "meta": {}
    },
    "./node_modules/lodash/isString.js": {
      "id": 25,
      "meta": {}
    },
    "./node_modules/lodash/_castPath.js": {
      "id": 26,
      "meta": {}
    },
    "./node_modules/lodash/_copyObject.js": {
      "id": 27,
      "meta": {}
    },
    "./node_modules/lodash/eq.js": {
      "id": 28,
      "meta": {}
    },
    "./node_modules/lodash/isArguments.js": {
      "id": 29,
      "meta": {}
    },
    "./node_modules/lodash/isArrayLikeObject.js": {
      "id": 30,
      "meta": {}
    },
    "./node_modules/lodash/identity.js": {
      "id": 31,
      "meta": {}
    },
    "./node_modules/lodash/_ListCache.js": {
      "id": 32,
      "meta": {}
    },
    "./node_modules/lodash/_SetCache.js": {
      "id": 33,
      "meta": {}
    },
    "./node_modules/lodash/_Stack.js": {
      "id": 34,
      "meta": {}
    },
    "./node_modules/lodash/_arrayEach.js": {
      "id": 35,
      "meta": {}
    },
    "./node_modules/lodash/_arrayPush.js": {
      "id": 36,
      "meta": {}
    },
    "./node_modules/lodash/_arrayReduce.js": {
      "id": 37,
      "meta": {}
    },
    "./node_modules/lodash/_assignValue.js": {
      "id": 38,
      "meta": {}
    },
    "./node_modules/lodash/_assocIndexOf.js": {
      "id": 39,
      "meta": {}
    },
    "./node_modules/lodash/_baseCreate.js": {
      "id": 40,
      "meta": {}
    },
    "./node_modules/lodash/_baseToString.js": {
      "id": 41,
      "meta": {}
    },
    "./node_modules/lodash/_baseUnary.js": {
      "id": 42,
      "meta": {}
    },
    "./node_modules/lodash/_createAssigner.js": {
      "id": 43,
      "meta": {}
    },
    "./node_modules/lodash/_createCtorWrapper.js": {
      "id": 44,
      "meta": {}
    },
    "./node_modules/lodash/_getMapData.js": {
      "id": 45,
      "meta": {}
    },
    "./node_modules/lodash/_getPrototype.js": {
      "id": 46,
      "meta": {}
    },
    "./node_modules/lodash/_isHostObject.js": {
      "id": 47,
      "meta": {}
    },
    "./node_modules/lodash/_isPrototype.js": {
      "id": 48,
      "meta": {}
    },
    "./node_modules/lodash/_nativeCreate.js": {
      "id": 49,
      "meta": {}
    },
    "./node_modules/lodash/_setToArray.js": {
      "id": 50,
      "meta": {}
    },
    "./node_modules/lodash/isLength.js": {
      "id": 51,
      "meta": {}
    },
    "./node_modules/lodash/keysIn.js": {
      "id": 52,
      "meta": {}
    },
    "./node_modules/lodash/_LazyWrapper.js": {
      "id": 53,
      "meta": {}
    },
    "./node_modules/lodash/_MapCache.js": {
      "id": 54,
      "meta": {}
    },
    "./node_modules/lodash/_Symbol.js": {
      "id": 55,
      "meta": {}
    },
    "./node_modules/lodash/_arrayIncludes.js": {
      "id": 56,
      "meta": {}
    },
    "./node_modules/lodash/_arrayIncludesWith.js": {
      "id": 57,
      "meta": {}
    },
    "./node_modules/lodash/_baseClamp.js": {
      "id": 58,
      "meta": {}
    },
    "./node_modules/lodash/_baseClone.js": {
      "id": 59,
      "meta": {}
    },
    "./node_modules/lodash/_baseDifference.js": {
      "id": 60,
      "meta": {}
    },
    "./node_modules/lodash/_baseForOwn.js": {
      "id": 61,
      "meta": {}
    },
    "./node_modules/lodash/_baseGet.js": {
      "id": 62,
      "meta": {}
    },
    "./node_modules/lodash/_baseIsEqual.js": {
      "id": 63,
      "meta": {}
    },
    "./node_modules/lodash/_baseLodash.js": {
      "id": 64,
      "meta": {}
    },
    "./node_modules/lodash/_baseMerge.js": {
      "id": 65,
      "meta": {}
    },
    "./node_modules/lodash/_cacheHas.js": {
      "id": 66,
      "meta": {}
    },
    "./node_modules/lodash/_castSlice.js": {
      "id": 67,
      "meta": {}
    },
    "./node_modules/lodash/_cloneArrayBuffer.js": {
      "id": 68,
      "meta": {}
    },
    "./node_modules/lodash/_createAggregator.js": {
      "id": 69,
      "meta": {}
    },
    "./node_modules/lodash/_createWrapper.js": {
      "id": 70,
      "meta": {}
    },
    "./node_modules/lodash/_getSymbols.js": {
      "id": 71,
      "meta": {}
    },
    "./node_modules/lodash/_getTag.js": {
      "id": 72,
      "meta": {}
    },
    "./node_modules/lodash/_replaceHolders.js": {
      "id": 73,
      "meta": {}
    },
    "./node_modules/lodash/fp/placeholder.js": {
      "id": 74,
      "meta": {}
    },
    "./node_modules/lodash/isTypedArray.js": {
      "id": 75,
      "meta": {}
    },
    "./node_modules/lodash/toNumber.js": {
      "id": 76,
      "meta": {}
    },
    "./node_modules/process/browser.js": {
      "id": 77,
      "meta": {}
    },
    "./node_modules/shortid/lib/alphabet.js": {
      "id": 78,
      "meta": {}
    },
    "./node_modules/webpack/buildin/module.js": {
      "id": 79,
      "meta": {}
    },
    "./node_modules/angular/index.js": {
      "id": 80,
      "meta": {}
    },
    "./node_modules/lodash/assign.js": {
      "id": 81,
      "meta": {}
    },
    "./node_modules/lodash/debounce.js": {
      "id": 82,
      "meta": {}
    },
    "./node_modules/lodash/findIndex.js": {
      "id": 83,
      "meta": {}
    },
    "./node_modules/lodash/findLastIndex.js": {
      "id": 84,
      "meta": {}
    },
    "./node_modules/lodash/get.js": {
      "id": 85,
      "meta": {}
    },
    "./node_modules/lodash/head.js": {
      "id": 86,
      "meta": {}
    },
    "./node_modules/lodash/isPlainObject.js": {
      "id": 87,
      "meta": {}
    },
    "./node_modules/lodash/last.js": {
      "id": 88,
      "meta": {}
    },
    "./node_modules/lodash/merge.js": {
      "id": 89,
      "meta": {}
    },
    "./node_modules/lodash/toPath.js": {
      "id": 90,
      "meta": {}
    },
    "./node_modules/lodash/values.js": {
      "id": 91,
      "meta": {}
    },
    "./node_modules/atoa/atoa.js": {
      "id": 92,
      "meta": {}
    },
    "./node_modules/dragula/dragula.js": {
      "id": 93,
      "meta": {}
    },
    "./node_modules/htmlsave/src/modules/utils.js": {
      "id": 94,
      "meta": {}
    },
    "./node_modules/lodash/_LodashWrapper.js": {
      "id": 95,
      "meta": {}
    },
    "./node_modules/lodash/_Map.js": {
      "id": 96,
      "meta": {}
    },
    "./node_modules/lodash/_Set.js": {
      "id": 97,
      "meta": {}
    },
    "./node_modules/lodash/_Uint8Array.js": {
      "id": 98,
      "meta": {}
    },
    "./node_modules/lodash/_WeakMap.js": {
      "id": 99,
      "meta": {}
    },
    "./node_modules/lodash/_arrayFilter.js": {
      "id": 100,
      "meta": {}
    },
    "./node_modules/lodash/_arraySome.js": {
      "id": 101,
      "meta": {}
    },
    "./node_modules/lodash/_assignInDefaults.js": {
      "id": 102,
      "meta": {}
    },
    "./node_modules/lodash/_assignMergeValue.js": {
      "id": 103,
      "meta": {}
    },
    "./node_modules/lodash/_baseAssign.js": {
      "id": 104,
      "meta": {}
    },
    "./node_modules/lodash/_baseFilter.js": {
      "id": 105,
      "meta": {}
    },
    "./node_modules/lodash/_baseFindIndex.js": {
      "id": 106,
      "meta": {}
    },
    "./node_modules/lodash/_baseGetAllKeys.js": {
      "id": 107,
      "meta": {}
    },
    "./node_modules/lodash/_baseHas.js": {
      "id": 108,
      "meta": {}
    },
    "./node_modules/lodash/_baseKeys.js": {
      "id": 109,
      "meta": {}
    },
    "./node_modules/lodash/_baseMap.js": {
      "id": 110,
      "meta": {}
    },
    "./node_modules/lodash/_baseOrderBy.js": {
      "id": 111,
      "meta": {}
    },
    "./node_modules/lodash/_basePick.js": {
      "id": 112,
      "meta": {}
    },
    "./node_modules/lodash/_basePickBy.js": {
      "id": 113,
      "meta": {}
    },
    "./node_modules/lodash/_baseProperty.js": {
      "id": 114,
      "meta": {}
    },
    "./node_modules/lodash/_baseSetData.js": {
      "id": 115,
      "meta": {}
    },
    "./node_modules/lodash/_baseUniq.js": {
      "id": 116,
      "meta": {}
    },
    "./node_modules/lodash/_baseValues.js": {
      "id": 117,
      "meta": {}
    },
    "./node_modules/lodash/_composeArgs.js": {
      "id": 118,
      "meta": {}
    },
    "./node_modules/lodash/_composeArgsRight.js": {
      "id": 119,
      "meta": {}
    },
    "./node_modules/lodash/_createFind.js": {
      "id": 120,
      "meta": {}
    },
    "./node_modules/lodash/_createHybridWrapper.js": {
      "id": 121,
      "meta": {}
    },
    "./node_modules/lodash/_createRecurryWrapper.js": {
      "id": 122,
      "meta": {}
    },
    "./node_modules/lodash/_equalArrays.js": {
      "id": 123,
      "meta": {}
    },
    "./node_modules/lodash/_getAllKeysIn.js": {
      "id": 124,
      "meta": {}
    },
    "./node_modules/lodash/_getData.js": {
      "id": 125,
      "meta": {}
    },
    "./node_modules/lodash/_getHolder.js": {
      "id": 126,
      "meta": {}
    },
    "./node_modules/lodash/_indexKeys.js": {
      "id": 127,
      "meta": {}
    },
    "./node_modules/lodash/_isStrictComparable.js": {
      "id": 128,
      "meta": {}
    },
    "./node_modules/lodash/_mapToArray.js": {
      "id": 129,
      "meta": {}
    },
    "./node_modules/lodash/_matchesStrictComparable.js": {
      "id": 130,
      "meta": {}
    },
    "./node_modules/lodash/_metaMap.js": {
      "id": 131,
      "meta": {}
    },
    "./node_modules/lodash/_reInterpolate.js": {
      "id": 132,
      "meta": {}
    },
    "./node_modules/lodash/_setData.js": {
      "id": 133,
      "meta": {}
    },
    "./node_modules/lodash/_stringToArray.js": {
      "id": 134,
      "meta": {}
    },
    "./node_modules/lodash/_stringToPath.js": {
      "id": 135,
      "meta": {}
    },
    "./node_modules/lodash/_toSource.js": {
      "id": 136,
      "meta": {}
    },
    "./node_modules/lodash/assignInWith.js": {
      "id": 137,
      "meta": {}
    },
    "./node_modules/lodash/fp/convert.js": {
      "id": 138,
      "meta": {}
    },
    "./node_modules/lodash/isBuffer.js": {
      "id": 139,
      "meta": {}
    },
    "./node_modules/lodash/isError.js": {
      "id": 140,
      "meta": {}
    },
    "./node_modules/lodash/noop.js": {
      "id": 141,
      "meta": {}
    },
    "./node_modules/lodash/now.js": {
      "id": 142,
      "meta": {}
    },
    "./node_modules/adjust-engine/index.js": {
      "id": 143,
      "meta": {}
    },
    "./node_modules/angular-animate/index.js": {
      "id": 144,
      "meta": {}
    },
    "./node_modules/angular-cookies/index.js": {
      "id": 145,
      "meta": {}
    },
    "./node_modules/angular-dragula/angular-dragula.js": {
      "id": 146,
      "meta": {}
    },
    "./node_modules/angular-gridster/src/angular-gridster.js": {
      "id": 147,
      "meta": {}
    },
    "./node_modules/angular-i18n/angular-locale_nl.js": {
      "id": 148,
      "meta": {}
    },
    "./node_modules/angular-sanitize/index.js": {
      "id": 149,
      "meta": {}
    },
    "./node_modules/angular-ui-router/release/angular-ui-router.js": {
      "id": 150,
      "meta": {}
    },
    "./node_modules/api-check/dist/api-check.js": {
      "id": 151,
      "meta": {}
    },
    "./node_modules/dateformat/lib/dateformat.js": {
      "id": 152,
      "meta": {}
    },
    "./node_modules/email-regex/index.js": {
      "id": 153,
      "meta": {}
    },
    "./node_modules/es6-promise/dist/es6-promise.js": {
      "id": 154,
      "meta": {}
    },
    "./node_modules/fontfaceobserver/fontfaceobserver.standalone.js": {
      "id": 155,
      "meta": {}
    },
    "./node_modules/ftscroller/lib/ftscroller.js": {
      "id": 156,
      "meta": {}
    },
    "./node_modules/fuzzy/lib/fuzzy.js": {
      "id": 157,
      "meta": {}
    },
    "./node_modules/htmlsave/src/htmlsave.js": {
      "id": 158,
      "meta": {}
    },
    "./node_modules/iban/iban.js": {
      "id": 159,
      "meta": {}
    },
    "./node_modules/is-promise/index.js": {
      "id": 160,
      "meta": {}
    },
    "./node_modules/lodash/capitalize.js": {
      "id": 161,
      "meta": {}
    },
    "./node_modules/lodash/compact.js": {
      "id": 162,
      "meta": {}
    },
    "./node_modules/lodash/defaults.js": {
      "id": 163,
      "meta": {}
    },
    "./node_modules/lodash/defaultsDeep.js": {
      "id": 164,
      "meta": {}
    },
    "./node_modules/lodash/difference.js": {
      "id": 165,
      "meta": {}
    },
    "./node_modules/lodash/each.js": {
      "id": 166,
      "meta": {}
    },
    "./node_modules/lodash/endsWith.js": {
      "id": 167,
      "meta": {}
    },
    "./node_modules/lodash/every.js": {
      "id": 168,
      "meta": {}
    },
    "./node_modules/lodash/fill.js": {
      "id": 169,
      "meta": {}
    },
    "./node_modules/lodash/filter.js": {
      "id": 170,
      "meta": {}
    },
    "./node_modules/lodash/find.js": {
      "id": 171,
      "meta": {}
    },
    "./node_modules/lodash/findLast.js": {
      "id": 172,
      "meta": {}
    },
    "./node_modules/lodash/first.js": {
      "id": 173,
      "meta": {}
    },
    "./node_modules/lodash/flatten.js": {
      "id": 174,
      "meta": {}
    },
    "./node_modules/lodash/flattenDeep.js": {
      "id": 175,
      "meta": {}
    },
    "./node_modules/lodash/fp/assign.js": {
      "id": 176,
      "meta": {}
    },
    "./node_modules/lodash/fp/merge.js": {
      "id": 177,
      "meta": {}
    },
    "./node_modules/lodash/fromPairs.js": {
      "id": 178,
      "meta": {}
    },
    "./node_modules/lodash/groupBy.js": {
      "id": 179,
      "meta": {}
    },
    "./node_modules/lodash/includes.js": {
      "id": 180,
      "meta": {}
    },
    "./node_modules/lodash/indexOf.js": {
      "id": 181,
      "meta": {}
    },
    "./node_modules/lodash/initial.js": {
      "id": 182,
      "meta": {}
    },
    "./node_modules/lodash/intersection.js": {
      "id": 183,
      "meta": {}
    },
    "./node_modules/lodash/invokeMap.js": {
      "id": 184,
      "meta": {}
    },
    "./node_modules/lodash/isEmpty.js": {
      "id": 185,
      "meta": {}
    },
    "./node_modules/lodash/isEqual.js": {
      "id": 186,
      "meta": {}
    },
    "./node_modules/lodash/isNull.js": {
      "id": 187,
      "meta": {}
    },
    "./node_modules/lodash/keyBy.js": {
      "id": 188,
      "meta": {}
    },
    "./node_modules/lodash/lodash.js": {
      "id": 189,
      "meta": {}
    },
    "./node_modules/lodash/map.js": {
      "id": 190,
      "meta": {}
    },
    "./node_modules/lodash/mapKeys.js": {
      "id": 191,
      "meta": {}
    },
    "./node_modules/lodash/mapValues.js": {
      "id": 192,
      "meta": {}
    },
    "./node_modules/lodash/omit.js": {
      "id": 193,
      "meta": {}
    },
    "./node_modules/lodash/omitBy.js": {
      "id": 194,
      "meta": {}
    },
    "./node_modules/lodash/once.js": {
      "id": 195,
      "meta": {}
    },
    "./node_modules/lodash/orderBy.js": {
      "id": 196,
      "meta": {}
    },
    "./node_modules/lodash/partition.js": {
      "id": 197,
      "meta": {}
    },
    "./node_modules/lodash/pick.js": {
      "id": 198,
      "meta": {}
    },
    "./node_modules/lodash/pickBy.js": {
      "id": 199,
      "meta": {}
    },
    "./node_modules/lodash/pull.js": {
      "id": 200,
      "meta": {}
    },
    "./node_modules/lodash/range.js": {
      "id": 201,
      "meta": {}
    },
    "./node_modules/lodash/reduce.js": {
      "id": 202,
      "meta": {}
    },
    "./node_modules/lodash/reject.js": {
      "id": 203,
      "meta": {}
    },
    "./node_modules/lodash/result.js": {
      "id": 204,
      "meta": {}
    },
    "./node_modules/lodash/set.js": {
      "id": 205,
      "meta": {}
    },
    "./node_modules/lodash/some.js": {
      "id": 206,
      "meta": {}
    },
    "./node_modules/lodash/sortBy.js": {
      "id": 207,
      "meta": {}
    },
    "./node_modules/lodash/startsWith.js": {
      "id": 208,
      "meta": {}
    },
    "./node_modules/lodash/tail.js": {
      "id": 209,
      "meta": {}
    },
    "./node_modules/lodash/take.js": {
      "id": 210,
      "meta": {}
    },
    "./node_modules/lodash/takeRight.js": {
      "id": 211,
      "meta": {}
    },
    "./node_modules/lodash/template.js": {
      "id": 212,
      "meta": {}
    },
    "./node_modules/lodash/throttle.js": {
      "id": 213,
      "meta": {}
    },
    "./node_modules/lodash/trim.js": {
      "id": 214,
      "meta": {}
    },
    "./node_modules/lodash/uniq.js": {
      "id": 215,
      "meta": {}
    },
    "./node_modules/lodash/uniqBy.js": {
      "id": 216,
      "meta": {}
    },
    "./node_modules/lodash/without.js": {
      "id": 217,
      "meta": {}
    },
    "./node_modules/match-media/matchMedia.js": {
      "id": 218,
      "meta": {}
    },
    "./node_modules/nprogress/nprogress.js": {
      "id": 219,
      "meta": {}
    },
    "./node_modules/oclazyload/dist/ocLazyLoad.js": {
      "id": 220,
      "meta": {}
    },
    "./node_modules/point-in-triangle/index.js": {
      "id": 221,
      "meta": {}
    },
    "./node_modules/seamless-immutable/src/seamless-immutable.js": {
      "id": 222,
      "meta": {}
    },
    "./node_modules/shortid/index.js": {
      "id": 223,
      "meta": {}
    },
    "./node_modules/url/url.js": {
      "id": 224,
      "meta": {}
    },
    "./node_modules/wicked-good-xpath/dist/wgxpath.install-node.js": {
      "id": 225,
      "meta": {}
    },
    "./node_modules/word-ngrams/ngrams.js": {
      "id": 226,
      "meta": {}
    },
    "./node_modules/adjust-engine/lib/expression.js": {
      "id": 227,
      "meta": {}
    },
    "./node_modules/adjust-engine/lib/mirror.js": {
      "id": 228,
      "meta": {}
    },
    "./node_modules/angular-animate/angular-animate.js": {
      "id": 229,
      "meta": {}
    },
    "./node_modules/angular-cookies/angular-cookies.js": {
      "id": 230,
      "meta": {}
    },
    "./node_modules/angular-dragula/directive.js": {
      "id": 231,
      "meta": {}
    },
    "./node_modules/angular-dragula/replicate-events.js": {
      "id": 232,
      "meta": {}
    },
    "./node_modules/angular-dragula/service.js": {
      "id": 233,
      "meta": {}
    },
    "./node_modules/angular-sanitize/angular-sanitize.js": {
      "id": 234,
      "meta": {}
    },
    "./node_modules/angular/angular.js": {
      "id": 235,
      "meta": {}
    },
    "./node_modules/contra/debounce.js": {
      "id": 236,
      "meta": {}
    },
    "./node_modules/contra/emitter.js": {
      "id": 237,
      "meta": {}
    },
    "./node_modules/crossvent/src/crossvent.js": {
      "id": 238,
      "meta": {}
    },
    "./node_modules/crossvent/src/eventmap.js": {
      "id": 239,
      "meta": {}
    },
    "./node_modules/custom-event/index.js": {
      "id": 240,
      "meta": {}
    },
    "./node_modules/dragula/classes.js": {
      "id": 241,
      "meta": {}
    },
    "./node_modules/htmlsave/src/modules/slice.js": {
      "id": 242,
      "meta": {}
    },
    "./node_modules/htmlsave/src/modules/truncate.js": {
      "id": 243,
      "meta": {}
    },
    "./node_modules/lodash/_DataView.js": {
      "id": 244,
      "meta": {}
    },
    "./node_modules/lodash/_Hash.js": {
      "id": 245,
      "meta": {}
    },
    "./node_modules/lodash/_Promise.js": {
      "id": 246,
      "meta": {}
    },
    "./node_modules/lodash/_Reflect.js": {
      "id": 247,
      "meta": {}
    },
    "./node_modules/lodash/_addMapEntry.js": {
      "id": 248,
      "meta": {}
    },
    "./node_modules/lodash/_addSetEntry.js": {
      "id": 249,
      "meta": {}
    },
    "./node_modules/lodash/_arrayAggregator.js": {
      "id": 250,
      "meta": {}
    },
    "./node_modules/lodash/_arrayEvery.js": {
      "id": 251,
      "meta": {}
    },
    "./node_modules/lodash/_baseAggregator.js": {
      "id": 252,
      "meta": {}
    },
    "./node_modules/lodash/_baseEvery.js": {
      "id": 253,
      "meta": {}
    },
    "./node_modules/lodash/_baseFill.js": {
      "id": 254,
      "meta": {}
    },
    "./node_modules/lodash/_baseFor.js": {
      "id": 255,
      "meta": {}
    },
    "./node_modules/lodash/_baseHasIn.js": {
      "id": 256,
      "meta": {}
    },
    "./node_modules/lodash/_baseIndexOfWith.js": {
      "id": 257,
      "meta": {}
    },
    "./node_modules/lodash/_baseIntersection.js": {
      "id": 258,
      "meta": {}
    },
    "./node_modules/lodash/_baseInvoke.js": {
      "id": 259,
      "meta": {}
    },
    "./node_modules/lodash/_baseIsEqualDeep.js": {
      "id": 260,
      "meta": {}
    },
    "./node_modules/lodash/_baseIsMatch.js": {
      "id": 261,
      "meta": {}
    },
    "./node_modules/lodash/_baseIsNative.js": {
      "id": 262,
      "meta": {}
    },
    "./node_modules/lodash/_baseKeysIn.js": {
      "id": 263,
      "meta": {}
    },
    "./node_modules/lodash/_baseMatches.js": {
      "id": 264,
      "meta": {}
    },
    "./node_modules/lodash/_baseMatchesProperty.js": {
      "id": 265,
      "meta": {}
    },
    "./node_modules/lodash/_baseMergeDeep.js": {
      "id": 266,
      "meta": {}
    },
    "./node_modules/lodash/_basePropertyDeep.js": {
      "id": 267,
      "meta": {}
    },
    "./node_modules/lodash/_basePullAll.js": {
      "id": 268,
      "meta": {}
    },
    "./node_modules/lodash/_baseRange.js": {
      "id": 269,
      "meta": {}
    },
    "./node_modules/lodash/_baseReduce.js": {
      "id": 270,
      "meta": {}
    },
    "./node_modules/lodash/_baseSet.js": {
      "id": 271,
      "meta": {}
    },
    "./node_modules/lodash/_baseSome.js": {
      "id": 272,
      "meta": {}
    },
    "./node_modules/lodash/_baseSortBy.js": {
      "id": 273,
      "meta": {}
    },
    "./node_modules/lodash/_baseTimes.js": {
      "id": 274,
      "meta": {}
    },
    "./node_modules/lodash/_castArrayLikeObject.js": {
      "id": 275,
      "meta": {}
    },
    "./node_modules/lodash/_charsEndIndex.js": {
      "id": 276,
      "meta": {}
    },
    "./node_modules/lodash/_charsStartIndex.js": {
      "id": 277,
      "meta": {}
    },
    "./node_modules/lodash/_checkGlobal.js": {
      "id": 278,
      "meta": {}
    },
    "./node_modules/lodash/_cloneBuffer.js": {
      "id": 279,
      "meta": {}
    },
    "./node_modules/lodash/_cloneDataView.js": {
      "id": 280,
      "meta": {}
    },
    "./node_modules/lodash/_cloneMap.js": {
      "id": 281,
      "meta": {}
    },
    "./node_modules/lodash/_cloneRegExp.js": {
      "id": 282,
      "meta": {}
    },
    "./node_modules/lodash/_cloneSet.js": {
      "id": 283,
      "meta": {}
    },
    "./node_modules/lodash/_cloneSymbol.js": {
      "id": 284,
      "meta": {}
    },
    "./node_modules/lodash/_cloneTypedArray.js": {
      "id": 285,
      "meta": {}
    },
    "./node_modules/lodash/_compareAscending.js": {
      "id": 286,
      "meta": {}
    },
    "./node_modules/lodash/_compareMultiple.js": {
      "id": 287,
      "meta": {}
    },
    "./node_modules/lodash/_copySymbols.js": {
      "id": 288,
      "meta": {}
    },
    "./node_modules/lodash/_coreJsData.js": {
      "id": 289,
      "meta": {}
    },
    "./node_modules/lodash/_countHolders.js": {
      "id": 290,
      "meta": {}
    },
    "./node_modules/lodash/_createBaseEach.js": {
      "id": 291,
      "meta": {}
    },
    "./node_modules/lodash/_createBaseFor.js": {
      "id": 292,
      "meta": {}
    },
    "./node_modules/lodash/_createBaseWrapper.js": {
      "id": 293,
      "meta": {}
    },
    "./node_modules/lodash/_createCaseFirst.js": {
      "id": 294,
      "meta": {}
    },
    "./node_modules/lodash/_createCurryWrapper.js": {
      "id": 295,
      "meta": {}
    },
    "./node_modules/lodash/_createPartialWrapper.js": {
      "id": 296,
      "meta": {}
    },
    "./node_modules/lodash/_createRange.js": {
      "id": 297,
      "meta": {}
    },
    "./node_modules/lodash/_createSet.js": {
      "id": 298,
      "meta": {}
    },
    "./node_modules/lodash/_equalByTag.js": {
      "id": 299,
      "meta": {}
    },
    "./node_modules/lodash/_equalObjects.js": {
      "id": 300,
      "meta": {}
    },
    "./node_modules/lodash/_escapeHtmlChar.js": {
      "id": 301,
      "meta": {}
    },
    "./node_modules/lodash/_escapeStringChar.js": {
      "id": 302,
      "meta": {}
    },
    "./node_modules/lodash/_getAllKeys.js": {
      "id": 303,
      "meta": {}
    },
    "./node_modules/lodash/_getFuncName.js": {
      "id": 304,
      "meta": {}
    },
    "./node_modules/lodash/_getLength.js": {
      "id": 305,
      "meta": {}
    },
    "./node_modules/lodash/_getMatchData.js": {
      "id": 306,
      "meta": {}
    },
    "./node_modules/lodash/_getSymbolsIn.js": {
      "id": 307,
      "meta": {}
    },
    "./node_modules/lodash/_getValue.js": {
      "id": 308,
      "meta": {}
    },
    "./node_modules/lodash/_hasPath.js": {
      "id": 309,
      "meta": {}
    },
    "./node_modules/lodash/_hashClear.js": {
      "id": 310,
      "meta": {}
    },
    "./node_modules/lodash/_hashDelete.js": {
      "id": 311,
      "meta": {}
    },
    "./node_modules/lodash/_hashGet.js": {
      "id": 312,
      "meta": {}
    },
    "./node_modules/lodash/_hashHas.js": {
      "id": 313,
      "meta": {}
    },
    "./node_modules/lodash/_hashSet.js": {
      "id": 314,
      "meta": {}
    },
    "./node_modules/lodash/_indexOfNaN.js": {
      "id": 315,
      "meta": {}
    },
    "./node_modules/lodash/_initCloneArray.js": {
      "id": 316,
      "meta": {}
    },
    "./node_modules/lodash/_initCloneByTag.js": {
      "id": 317,
      "meta": {}
    },
    "./node_modules/lodash/_initCloneObject.js": {
      "id": 318,
      "meta": {}
    },
    "./node_modules/lodash/_isFlattenable.js": {
      "id": 319,
      "meta": {}
    },
    "./node_modules/lodash/_isFlattenableIteratee.js": {
      "id": 320,
      "meta": {}
    },
    "./node_modules/lodash/_isKeyable.js": {
      "id": 321,
      "meta": {}
    },
    "./node_modules/lodash/_isLaziable.js": {
      "id": 322,
      "meta": {}
    },
    "./node_modules/lodash/_isMasked.js": {
      "id": 323,
      "meta": {}
    },
    "./node_modules/lodash/_iteratorToArray.js": {
      "id": 324,
      "meta": {}
    },
    "./node_modules/lodash/_listCacheClear.js": {
      "id": 325,
      "meta": {}
    },
    "./node_modules/lodash/_listCacheDelete.js": {
      "id": 326,
      "meta": {}
    },
    "./node_modules/lodash/_listCacheGet.js": {
      "id": 327,
      "meta": {}
    },
    "./node_modules/lodash/_listCacheHas.js": {
      "id": 328,
      "meta": {}
    },
    "./node_modules/lodash/_listCacheSet.js": {
      "id": 329,
      "meta": {}
    },
    "./node_modules/lodash/_mapCacheClear.js": {
      "id": 330,
      "meta": {}
    },
    "./node_modules/lodash/_mapCacheDelete.js": {
      "id": 331,
      "meta": {}
    },
    "./node_modules/lodash/_mapCacheGet.js": {
      "id": 332,
      "meta": {}
    },
    "./node_modules/lodash/_mapCacheHas.js": {
      "id": 333,
      "meta": {}
    },
    "./node_modules/lodash/_mapCacheSet.js": {
      "id": 334,
      "meta": {}
    },
    "./node_modules/lodash/_mergeData.js": {
      "id": 335,
      "meta": {}
    },
    "./node_modules/lodash/_mergeDefaults.js": {
      "id": 336,
      "meta": {}
    },
    "./node_modules/lodash/_parent.js": {
      "id": 337,
      "meta": {}
    },
    "./node_modules/lodash/_reEscape.js": {
      "id": 338,
      "meta": {}
    },
    "./node_modules/lodash/_reEvaluate.js": {
      "id": 339,
      "meta": {}
    },
    "./node_modules/lodash/_reHasComplexSymbol.js": {
      "id": 340,
      "meta": {}
    },
    "./node_modules/lodash/_realNames.js": {
      "id": 341,
      "meta": {}
    },
    "./node_modules/lodash/_reorder.js": {
      "id": 342,
      "meta": {}
    },
    "./node_modules/lodash/_setCacheAdd.js": {
      "id": 343,
      "meta": {}
    },
    "./node_modules/lodash/_setCacheHas.js": {
      "id": 344,
      "meta": {}
    },
    "./node_modules/lodash/_stackClear.js": {
      "id": 345,
      "meta": {}
    },
    "./node_modules/lodash/_stackDelete.js": {
      "id": 346,
      "meta": {}
    },
    "./node_modules/lodash/_stackGet.js": {
      "id": 347,
      "meta": {}
    },
    "./node_modules/lodash/_stackHas.js": {
      "id": 348,
      "meta": {}
    },
    "./node_modules/lodash/_stackSet.js": {
      "id": 349,
      "meta": {}
    },
    "./node_modules/lodash/_wrapperClone.js": {
      "id": 350,
      "meta": {}
    },
    "./node_modules/lodash/ary.js": {
      "id": 351,
      "meta": {}
    },
    "./node_modules/lodash/attempt.js": {
      "id": 352,
      "meta": {}
    },
    "./node_modules/lodash/before.js": {
      "id": 353,
      "meta": {}
    },
    "./node_modules/lodash/clone.js": {
      "id": 354,
      "meta": {}
    },
    "./node_modules/lodash/curry.js": {
      "id": 355,
      "meta": {}
    },
    "./node_modules/lodash/drop.js": {
      "id": 356,
      "meta": {}
    },
    "./node_modules/lodash/dropRight.js": {
      "id": 357,
      "meta": {}
    },
    "./node_modules/lodash/escape.js": {
      "id": 358,
      "meta": {}
    },
    "./node_modules/lodash/forEach.js": {
      "id": 359,
      "meta": {}
    },
    "./node_modules/lodash/fp/_baseConvert.js": {
      "id": 360,
      "meta": {}
    },
    "./node_modules/lodash/fp/_mapping.js": {
      "id": 361,
      "meta": {}
    },
    "./node_modules/lodash/fp/_util.js": {
      "id": 362,
      "meta": {}
    },
    "./node_modules/lodash/hasIn.js": {
      "id": 363,
      "meta": {}
    },
    "./node_modules/lodash/iteratee.js": {
      "id": 364,
      "meta": {}
    },
    "./node_modules/lodash/memoize.js": {
      "id": 365,
      "meta": {}
    },
    "./node_modules/lodash/mergeWith.js": {
      "id": 366,
      "meta": {}
    },
    "./node_modules/lodash/property.js": {
      "id": 367,
      "meta": {}
    },
    "./node_modules/lodash/pullAll.js": {
      "id": 368,
      "meta": {}
    },
    "./node_modules/lodash/rearg.js": {
      "id": 369,
      "meta": {}
    },
    "./node_modules/lodash/spread.js": {
      "id": 370,
      "meta": {}
    },
    "./node_modules/lodash/stubArray.js": {
      "id": 371,
      "meta": {}
    },
    "./node_modules/lodash/stubFalse.js": {
      "id": 372,
      "meta": {}
    },
    "./node_modules/lodash/templateSettings.js": {
      "id": 373,
      "meta": {}
    },
    "./node_modules/lodash/toFinite.js": {
      "id": 374,
      "meta": {}
    },
    "./node_modules/lodash/toLength.js": {
      "id": 375,
      "meta": {}
    },
    "./node_modules/lodash/toPlainObject.js": {
      "id": 376,
      "meta": {}
    },
    "./node_modules/lodash/upperFirst.js": {
      "id": 377,
      "meta": {}
    },
    "./node_modules/lodash/wrapperLodash.js": {
      "id": 378,
      "meta": {}
    },
    "./node_modules/node-libs-browser/node_modules/timers-browserify/main.js": {
      "id": 379,
      "meta": {}
    },
    "./node_modules/object-assign/index.js": {
      "id": 380,
      "meta": {}
    },
    "./node_modules/punycode/punycode.js": {
      "id": 381,
      "meta": {}
    },
    "./node_modules/querystring-es3/decode.js": {
      "id": 382,
      "meta": {}
    },
    "./node_modules/querystring-es3/encode.js": {
      "id": 383,
      "meta": {}
    },
    "./node_modules/querystring-es3/index.js": {
      "id": 384,
      "meta": {}
    },
    "./node_modules/setimmediate/setImmediate.js": {
      "id": 385,
      "meta": {}
    },
    "./node_modules/shortid/lib/decode.js": {
      "id": 386,
      "meta": {}
    },
    "./node_modules/shortid/lib/encode.js": {
      "id": 387,
      "meta": {}
    },
    "./node_modules/shortid/lib/index.js": {
      "id": 388,
      "meta": {}
    },
    "./node_modules/shortid/lib/is-valid.js": {
      "id": 389,
      "meta": {}
    },
    "./node_modules/shortid/lib/random/random-byte-browser.js": {
      "id": 390,
      "meta": {}
    },
    "./node_modules/shortid/lib/random/random-from-seed.js": {
      "id": 391,
      "meta": {}
    },
    "./node_modules/shortid/lib/util/cluster-worker-id-browser.js": {
      "id": 392,
      "meta": {}
    },
    "./node_modules/ticky/ticky-browser.js": {
      "id": 393,
      "meta": {}
    },
    "./node_modules/url/util.js": {
      "id": 394,
      "meta": {}
    }
  }
}